364100 4953319.85988
364101 4663292.38127
364102 6782546.4815
364103 2948096.69485
364104 1192954.52086
364105 3470666.94082
364106 4518153.23002
364107 3324229.03917
364108 14367137.1741
364109 2611898.11551
364110 1531850.9662
364111 3121481.58497
364112 5078116.86406
364113 1622696.65125
364114 1004686.07227
364115 4657736.41476
364116 6830130.16278
364117 2525611.1564
364118 1208443.74591
364119 3471145.1102
364120 4621033.98779
364121 3323981.51973
364122 14437641.4485
364123 2782367.01294
364124 1593508.88081
364125 3121515.5922
364126 4930255.93587
364127 1697923.58544
364128 1373766.10742
364129 577236.920129
364130 6697787.22269
364131 0.0
364132 1136974.72179
364133 3476879.56164
364134 0.0
364135 3195970.04047
364136 5756186.47736
364137 0.0
364138 1459719.63156
364139 3119964.18503
364140 4922786.7597
364141 1697854.8655
364198 3083060.21636
364199 1052101.567
364200 2214888.85515
364201 1074309.09219
364202 957837.385358
364203 410956.866369
364204 90021.2722857
364205 1049113.18547
364206 2223892.23534
364207 1065973.76309
364208 956297.466572
364209 413826.723267
364210 0.0
364211 0.0
364212 0.0
364213 1004716.39096
364214 769308.073253
364215 411443.316117
410472 72465732171.1
410482 24237884223.8
410648 6637132.14812
410649 6613117.9964
