364100 1588.47417372
364101 219.521257742
364102 127.130374288
364103 73.4229518669
364104 20.9060683322
364105 12.5054297166
364106 23.3037934025
364107 9.14366519589
364108 6.0766008967
364109 4.65736709549
364110 2.21482753203
364111 1.46842374262
364112 1.74260121
364113 0.14392476
364114 1587.02159455
364115 219.995811609
364116 127.085147687
364117 74.9038174174
364118 20.3159891025
364119 12.7388080054
364120 24.4198356729
364121 9.23760597885
364122 6.08125446394
364123 4.79683677083
364124 2.24948629628
364125 1.49433317932
364126 1.76415092
364127 0.145046125
364128 1612.53148306
364129 211.708887205
364130 127.091559652
364131 74.7074060473
364132 20.5294394676
364133 11.9651057055
364134 24.5918394613
364135 9.30182178416
364136 6.17029024038
364137 4.75969835263
364138 2.23622323571
364139 1.49184007192
364140 1.76278578
364141 0.144568326
364198 2272.63499866
364199 81.0865067369
364200 43.8294933616
364201 5.49811578148
364202 2.6970431841
364203 0.51279919162
364204 2273.19949576
364205 81.7190087647
364206 43.8562855993
364207 5.35086329771
364208 2.71233466427
364209 0.486873891013
364210 2274.18813014
364211 81.6370632134
364212 43.8705345406
364213 5.40565221651
364214 2.74057150183
364215 0.49852899511
410472 87.7174095997
410482 76.9583804
410648 3.7775647
410649 3.77743062
